Estimate transition probilities conditioning on CpG-CpG distance — tp.estimate • vmrseq
…
#> 4989 0.4929610 0.15347581 0.5070390 0.8465242
#> 4990 0.4945069 0.14907490 0.5054931 0.8509251
#> 4991 0.4960419 0.14449137 0.5039581 0.8555086
#> 4992 0.4975661 0.13972544 0.5024339 0.8602746
#> 4993 0.4990795 0.13477734 0.5009205 0.8652227
#> 4994 0.5005822 0.12964730 0.4994178 0.8703527
#> 4995 0.5020742 0.12433555 0.4979258 0.8756644
#> 4996 0.5035554 0.11884231 0.4964446 0.8811577
#> 4997 0.5050261 0.11316781 0.4949739 0.8868322
#> 4998        NA 0.10731228        NA 0.8926877
#> 4999        NA 0.10127595        NA 0.8987240
#> 5000        NA 0.09505904        NA 0.9049410
#> 
#> Slot "train":
#> # A tibble: 5,000 × 8
#>    pbar_00  pbar_01  pbar_10 pbar_11    var_00     var_01    var_10     var_11
#>      <dbl>    <dbl>    <dbl>   <dbl>     <dbl>      <dbl>     <dbl>      <dbl>
#>  1 NaN     NaN      NaN      NaN     NA        NA         NA        NA        
#>  2   0.922   0.0640   0.0778   0.936  0.00345   0.00154    0.00345   0.00154  
#>  3   0.929   0.0671   0.0711   0.933  0.000400  0.000424   0.000400  0.000424 
#>  4   0.928   0.0728   0.0722   0.927  0.000183  0.000536   0.000183  0.000536 
#>  5   0.920   0.0847   0.0796   0.915  0.000279  0.000461   0.000279  0.000461 
#>  6   0.947   0.0725   0.0527   0.928  0.000377  0.000457   0.000377  0.000457 
#>  7   0.926   0.0507   0.0738   0.949  0.000667  0.0000691  0.000667  0.0000691
#>  8   0.916   0.0748   0.0838   0.925  0.000833  0.000170   0.000833  0.000170 
#>  9   0.940   0.0631   0.0605   0.937  0.000806  0.000721   0.000806  0.000721 
#> 10   0.897   0.0559   0.103    0.944  0.000700  0.00107    0.000700  0.00107  
#> # ℹ 4,990 more rows
…
